…
## Filter for specific values

We can easily filter out cases with certain column values, like for
example the states of Hawai and Alaska. We use `filter()`, the operator
`!` and `%in%`.

``` r
starwars %>% 
  filter(!homeworld%in%c("Tatooine","Naboo")) %>% 
  select(name, homeworld)
```

    ## # A tibble: 66 × 2
    ##    name                  homeworld 
    ##    <chr>                 <chr>     
    ##  1 Leia Organa           Alderaan  
    ##  2 Obi-Wan Kenobi        Stewjon   
    ##  3 Wilhuff Tarkin        Eriadu    
    ##  4 Chewbacca             Kashyyyk  
    ##  5 Han Solo              Corellia  
    ##  6 Greedo                Rodia     
    ##  7 Jabba Desilijic Tiure Nal Hutta 
    ##  8 Wedge Antilles        Corellia  
    ##  9 Jek Tono Porkins      Bestine IV
    ## 10 Yoda                  <NA>      
    ## # … with 56 more rows
…
## Order color legend

Order color legend by a variable’s values.

## Show unique values

Display all unique values of variable.

``` r
distinct(starwars, species) # dplyr function
```

    ## # A tibble: 38 × 1
    ##    species       
    ##    <chr>         
    ##  1 Human         
    ##  2 Droid         
    ##  3 Wookiee       
    ##  4 Rodian        
    ##  5 Hutt          
    ##  6 Yoda's species
    ##  7 Trandoshan    
    ##  8 Mon Calamari  
    ##  9 Ewok          
    ## 10 Sullustan     
    ## # … with 28 more rows
…
## Drop rows with missing values

Drop rows that have `NA`values in a specific column, here in `height`.

``` r
starwars %>% 
  drop_na(height)
```

    ## # A tibble: 81 × 14
    ##    name    height  mass hair_color  skin_color eye_color birth_year sex   gender
    ##    <chr>    <int> <dbl> <chr>       <chr>      <chr>          <dbl> <chr> <chr> 
    ##  1 Luke S…    172    77 blond       fair       blue            19   male  mascu…
    ##  2 C-3PO      167    75 <NA>        gold       yellow         112   none  mascu…
    ##  3 R2-D2       96    32 <NA>        white, bl… red             33   none  mascu…
    ##  4 Darth …    202   136 none        white      yellow          41.9 male  mascu…
    ##  5 Leia O…    150    49 brown       light      brown           19   fema… femin…
    ##  6 Owen L…    178   120 brown, grey light      blue            52   male  mascu…
    ##  7 Beru W…    165    75 brown       light      blue            47   fema… femin…
    ##  8 R5-D4       97    32 <NA>        white, red red             NA   none  mascu…
    ##  9 Biggs …    183    84 black       light      brown           24   male  mascu…
    ## 10 Obi-Wa…    182    77 auburn, wh… fair       blue-gray       57   male  mascu…
    ## # … with 71 more rows, and 5 more variables: homeworld <chr>, species <chr>,
    ## #   films <list>, vehicles <list>, starships <list>
…
Filter out any NA containing rows.

``` r
starwars %>% 
 na.exclude()
```

    ## # A tibble: 29 × 14
    ##    name    height  mass hair_color  skin_color eye_color birth_year sex   gender
    ##    <chr>    <int> <dbl> <chr>       <chr>      <chr>          <dbl> <chr> <chr> 
    ##  1 Luke S…    172    77 blond       fair       blue            19   male  mascu…
    ##  2 Darth …    202   136 none        white      yellow          41.9 male  mascu…
    ##  3 Leia O…    150    49 brown       light      brown           19   fema… femin…
    ##  4 Owen L…    178   120 brown, grey light      blue            52   male  mascu…
    ##  5 Beru W…    165    75 brown       light      blue            47   fema… femin…
    ##  6 Biggs …    183    84 black       light      brown           24   male  mascu…
    ##  7 Obi-Wa…    182    77 auburn, wh… fair       blue-gray       57   male  mascu…
    ##  8 Anakin…    188    84 blond       fair       blue            41.9 male  mascu…
    ##  9 Chewba…    228   112 brown       unknown    blue           200   male  mascu…
    ## 10 Han So…    180    80 brown       fair       brown           29   male  mascu…
    ## # … with 19 more rows, and 5 more variables: homeworld <chr>, species <chr>,
    ## #   films <list>, vehicles <list>, starships <list>
…
